{
	"points": [
		{
			"id": "1",
			"maoriName": "te kore",
			"name": "THE VOID",
			"shortDesc": "There is always the possibility of light. We all have the potential to grow.",
			"defination": "According to the Māori creation story, before Ranginui (Sky Father) and Papatūānuku (Earth Mother) were separated by their son Tāne Mahuta, the world was in a state of Te Kore, an immensely long and intense darkness. In the beginning there was only Te Kore, the void. Nothing existed except the possibility that something could. Te Kore eventually transformed into Te Pō (the long night) and Te Pō eventually transformed into Te Ao Mārama (the world of light). There were many transformations from Te Kore to Te Pō, leading to the beginning of the end of the unending darkness. For example, from Te Pō came the great night which fell into the long night and the long night fell into the deep night and the deep night fell into the intense night and the intense night fell into the dark night… and so it went on until there was a glimmer of dawn just before the bright light of day. Then, life itself emerged, fresh and abundant. Te Ao Mārama – daylight had arrived.", 			
			"metaphor": "Te Kore affirms that there is potential and possibility in everything; even the longest darkest night had millions of possibilities. The potential of Te Kore to bring forth Te Ao Mārama (the world of light) suggests that we are always in a state of spiritual awakening. Even in our darkest hours there is the potential to grow. In fact, many of us find that this is when we really start to search for a deeper meaning or purpose to our lives. If you are seeking the answer to a problem or wanting guidance in a certain area, Te Kore reminds you that there is always the possibility of light in every situation. There is always potential for you to increase your understanding, find a solution or receive guidance by stepping into that place of light, deep within you.", 
			"meditation": "Imagine that you are standing inside a large lava cave on Rangitoto Island. Quietly observe how the glow worms cling to the roof of the cave – they glitter and twinkle above you like small fairy lights. In this cool dark atmosphere allow your mind to travel back to the time of Te Kore when everything was in a state of total darkness. Visualise the darkness as it gradually transforms to give way to the first light of day. As you stand at the edge of the beginning of time you may like to invite your Source of Peace to join you in this place of deep reflection. Allow your mind to move naturally towards the bright light within. If there is something troubling you that you need an answer for, or if you need to find a solution to a problem, gently ask your Source of Peace to help you. Your potential to develop wisdom and find a solution is always in a positive state of awakening and expansion.",
			"location": {
					"lat": "-36.7910902",
					"lng": "174.8571523",
					"radius": "4.25"
			},
			"mapTitle" : "Te Kore / The Void Meditation: Black Lava Cave, Rangitoto Island",
			"mapDesc": "Haere mai - Welcome to the home of Te Kore (The Void) meditation. The ‘Te Kore - The Void’ meditation is located on Rangitoto Island. The island is situated on the right side of the North Island of New Zealand. A walk to the top of the island reveals panoramic views of the Hauraki Gulf and Auckland. It is home to many lava caves, including the crinkly black caves formed from volcanic lava. This native island bursts with lush green flora and fauna as well as many species of indigenous birds. It also houses the world’s largest pohutukawa forest. Stars of Aroha®"
		},
		{
			"id": "2",
			"maoriName": "<span style='color:#000;'>uenuku</span>",
			"name": "<span style='color:#000;'>RAINBOW GOD</span>",
			"shortDesc": "<span style='color:#000;'>Endless and enduring love today and every day.</span>",
			"defination": "One popular Māori mythology story involves the Rainbow God, Uenuku. Before he was transformed he was human and he fell in love with a beautiful Mist Maiden from the supernatural realm. She came to Aotearoa to bathe in the crystal clear waters. The Mist Maiden visited her lover in the evenings and then left before the sun rose. When she became pregnant the Mist Maiden asked Uenuku not to reveal her to anyone. However, he was so besotted with her he could not keep his promise. He covered the windows to prevent his lover from seeing the dawn approach. When the sun rose he flung the door open and revealed her to those waiting outside. Heart broken, the Mist Maiden returned to the sky where she resumed her rainbow form. Uenuku spent the rest of his days regretting what he had done as he searched for her. After Uenuku died, Ranginui (Sky Father) took compassion on him and lifted Uenuku up to the realm of the rainbows so that he could be reunited with his lover and child.",
			"metaphor": "Uenuku reminds us that the human heart is capable of great love but we have a responsibility to nurture and care for what we love in case we lose it. In this meditation Uenuku encourages you to think about a situation involving love. When love is present there is no beginning and no end between two souls. The magnificent rainbow palette that radiates from Uenuku merges and blends to form a continuous pastel brush-stroke across the sky. There is no beginning to one colour and no end to another. No colour is given more light to shine than any other - all are beautiful. Uenuku is a reminder to take care where love is involved; there is always the possibility of strengthening your love connections. The compassion of your Source of Peace has the grace to restore peacefulness in any situation.",
			"meditation": "Imagine that you are resting on a boat gliding slowly across Piopiotahi - the Milford Sound. You are pleasantly surprised when a beautiful, brightly coloured rainbow suddenly appears in the afternoon sky. A few seconds later another rainbow appears next to it. Your heart skips a beat as you realise you are witnessing Uenuku being re-united with his true love. Their beauty shines for all to see. Side by side their bodies dance and shimmer as they light up the sky. Their energy floats all around you and you feel cloaked in perfect peace. Let your thoughts naturally drift to someone that your heart feels connected to. Call on the loving energy that flows from Uenuku to help you reveal any area in your life concerning a love matter that may be troubling you. Is something occupying your thoughts or have words been spoken causing you concern? Ask your Source of Peace to help you dissolve any worries you may have about this situation. True love can build compassionate bridges of peace.",
			"location": {
					"lat": "-44.69013547299005",
					"lng": "167.96035766601562",
					"radius": "38.28"
			},
			"mapTitle" : "Uenuku / Rainbow Meditation: Piopiotahi, Milford Sound",
			"mapDesc": "Haere mai - Welcome to the home of Uenuku (Rainbow) meditation. The ‘Uenuku – Rainbow’ meditation is located at Piopiotahi – Milford Sound. Situated in the Fiordland National Park, the Milford Sound is a marine reserve in the south west of the South Island. Towering mountains rise above the indigo fiord while rainforests, waterfalls, and marine life (fur seals, dolphins and penguins) make this a popular tourist destination.  Stars of Aroha®"
		},
		{
			"id": "3",
			"maoriName": "kawakawa",
			"name": "NZ PEPPER TREE<br />MACROPIPER EXCESUM",
			"shortDesc": "Everything has a divine purpose and function.",
			"defination": "Kawakawa is an important medicinal plant in rongoā Māori (natural medicine). A native evergreen coastal shrub of New Zealand, Kawakawa is also found on the lowlands. Growing up to six metres tall, its distinctive dark yellow-green heart shaped leaves have a spicy scent when crushed and a peppery flavour. The small male and female flowers have upright spikes - the birds love to eat the fleshy yellow-orange spikes of the female flowers during summer. The Kawakawa leaves, bark and fruit have many uses; the green leaves burnt on an open fire ward off mosquitoes and sand flies. Toothache can be soothed by chewing the leaves. And tea made from boiled leaves forms a natural tonic. Kawakawa ointment is still used to treat cuts, boils, and abscesses. In the past, leaves placed over rocks then doused with hot water created a therapeutic steam bath which was also beneficial in childbirth. Today, many of these traditional remedies are still in use.",
			"metaphor": "The healing offered by the humble Kawakawa tree appears to be limitless. Every part of Kawakawa has value, from bark to berry. Kawakawa has a purpose and a function that has withstood the test of time. It is no wonder that it is still held in high regard by Māori practitioners of rongoā Māori today. Kawakawa provides a timely reminder that you also have a divine purpose and function, but this can sub-consciously become blocked. Kawakawa reminds you that the miracle of healing is available to you if you are ready to receive it. Your well-being may be affected if you become separated from your Higher Self or you lose sight of your purpose and function. However, an open and loving heart is capable of overcoming dis/ease - even unconsciously created sickness. Learning to release the burdens of the past can open the door to Peace.",
			"meditation": "Imagine crisp golden sand crunching beneath your feet as you make your way along Mahia Peninsula. It feels good to reconnect with the natural landscape as the cool sea tickles your toes. After a short distance you come upon an embankment filled with Kawakawa trees. Pigeons happily feast on the fleshy fruit; their satisfied noises delight you. Your hands feel as though they have a mind of their own as they reach out and touch the shiny green heart shaped leaves. You make yourself comfortable on the warm sand. Within minutes your eyelids become heavy and you drift into a state of peacefulness. Now, perfectly relaxed, your Source of Peace joins you on this tranquil beach. They gently ask, “Is there anything you carry from your past that prevents you from moving forward?” Perhaps you feel blocked or out of balance? Perhaps you are suffering from an emotional, spiritual or physical concern? Follow your inner guidance and allow your heart to take you where it needs to go. If something is blocked or out of balance, gently ask your Source of Peace to help you to open your heart and release the burden you are carrying to restore balance. In this healing place, take some time to reflect on your divine purpose and function. When you are on the right Pathway you will naturally feel happy, peaceful and perfectly in balance.",
			"location": {
					"lat": "-39.07997414532924",
					"lng": "177.8968048095703",
					"radius": "38"
			},
			"mapTitle" : "Kawakawa / New Zealand Pepper Tree Meditation: Mahia Peninsula",
			"mapDesc": "Haere mai - Welcome to the home of Kawakawa (NZ Pepper Tree) meditation. The ‘Kawakawa - NZ Pepper Tree’ meditation is located at Mahia Peninsular on the east coast of New Zealand’s North Island. Mahia Peninsular is situated south of Gisborne and north of Napier. The Māori term for Mahia means ‘indistinct sound.’ The coastline offers sea, surf and a rural country vibe. Surfing, diving and hiking are popular activities here. Stars of Aroha®"
  		},
		{
			"id": "4",
			"maoriName": "kiwi",
			"name": "NORTH ISLAND<br />BROWN KIWI",
			"shortDesc": "Humility costs nothing but says everything.",
			"defination": "The Kiwi is the oldest bird in the forest kingdom of Tāne Mahuta (God of the Forest). The Brown Kiwi lives in forested areas in the North Island. There is no other bird like Kiwi in the universe. Loose haired, wingless and flightless, and adorned with whiskers, the Kiwi is beautiful but unfortunately endangered. She is the only known bird to have nostrils on the end of her nose to sniff out food and predators such as dogs, cats and pigs. The Kiwi female is also unique in that she is recognised for being the smallest bird to produce the largest egg in relation to her body size. Māori believe that Kiwi once had wings and could fly along with Tūī and other birds that graced the forest roof top. Legend has it that insects were devouring his beloved trees so Tāne Mahuta asked specific birds to dwell on the ground and eat the insects to restore balance to his kingdom. Only the Kiwi courageously stepped forward to make the greatest sacrifice of all – to give up her wings. Tāne Mahuta assured Kiwi that her species would become the most loved and well known bird in the forest. The Kiwi tramps the forests every evening to watch over and protect us all.",
			"metaphor": "The presence of Kiwi is a reminder that your true nature is pure love. When Kiwi unhesitatingly offered to sacrifice her wings she realised that she would have to give up her enjoyment of flying among the highest trees in the forest. She also missed out on seeing the sunlight flood the trees at their highest point and she would no longer enjoy flying with the other birds. But Kiwi did not resist her opportunity to give. She never doubted her own mind about what was right. The natural order and harmony of the forest is essential for human survival. First and foremost Kiwi showed respect to Tāne Mahuta who requested her service. Kiwi showed her virtuous nature by shouldering the responsibility, not just for the forest kingdom, but for humanity. She sacrificed her wings to enable the forest to flourish so that order would be maintained. Kiwi prioritised the needs of others before her own desires. Humble Kiwi showed her pure heart and this distinguished her from all the other birds in the forest kingdom. This meditation supports you to appreciate your own true beauty. When your mind is aligned with your Source of Peace your heart will be open to the infinite possibilities to love and care for others. Kiwi reminds you that you are infinitely perfect with all the attributes needed to live in this world. Kiwi did not want to have wings to fly like Ruru the owl or sing like Tūī. Her beauty lies in her true nature, strength and purpose. Kiwi demonstrates an awakened heart - the heart that is always humble.",
			"meditation": "Imagine that you are hiking through the forest in the Wairarapa when you discover a Kiwi searching for food in the undergrowth. You watch carefully as she uses her beak to search for food among a pile of dry leaves near a fallen log. It is dusk and the aroma of damp earth, moss and native clematis pleases you. You relax as the natural scent of the forest envelops your senses. The first rays of sunlight filter through the tree tops and dance across the forest floor. Here in this haven, your mind feels fully relaxed. Imagine that you are talking to your Source of Peace:<br /><br /><div style='text-align:center !important;font-style:italic;font-family:Libre;'>Please strengthen me to be humble.<br /><br />Help me to cultivate my compassion and virtues.<br /><br />Strengthen me to use my light to help dissolve my problems as they arise and restore harmony.<br /><br />Help me to release my fears so that I can become all that I can be.<br /><br />Allow me to realise my unique gifts so that I can use these to help my brothers and sisters.<br /><br />I ask that the light of your Peace shine in me so strongly that it will light the Path for others to follow.<br /><br />In this quiet place, deep in my soul, I know that we are all One.<br /><br />I invite your Love and Peace to fill my mind, heart, body and spirit.<br /><br />Thank you.</div>",
			"location": {
					"lat": "-41.03145630903022",
					"lng": "175.54899215698242",
					"radius": "33"
			},
			"mapTitle" : "Kiwi / North Island Brown Kiwi Meditation: Wairarapa",
			"mapDesc": "Haere mai - Welcome to the home of Kiwi (North Island Brown Kiwi) meditation. The ‘Kiwi - North Island Brown Kiwi’ meditation is located in the Wairarapa region. It is situated on the south-east of the North Island, below Hawke’s Bay and north of Wellington. Wairarapa means ‘glistening waters’. This boutique wine area and agricultural region has much to offer including the Pukaka Mount Bruce Wildlife Centre; this is a breeding centre for endangered species. Among its native birds are rare white kiwi. Stars of Aroha®"
    	},
		{
			"id": "5",
			"maoriName": "<span style='color:#000;'>koru</span>",
			"name": "<span style='color:#000;'>PONGA FROND<br />SILVER FERN</span>",
			"shortDesc": "<span style='color:#000;'>Change is an inevitable outcome of growth and need not be feared.</span>",
			"defination": "Koru are the fronds of native ponga shrubs (tree ferns). Each new shoot is tightly curled into a spiral. As Koru grow they unfurl until they become a beautiful new leaf – commonly known as the New Zealand silver fern. Koru are very symbolic for Māori and are depicted in carvings on meeting houses as well as being a popular symbol in contemporary art and tattoo. Koru are associated with movement forward, the perpetual life cycle and a return to the beginning (symbolised in the central spiral of the Koru). Often linked symbolically with the whānau (family), Koru are aligned with potential, growth and change.",
			"metaphor": "Koru represents the source of power that lives within every person. This source of power is an extension of love and peace given by the Source of Peace to all of us. Throughout your life span, from birth to death, you have an opportunity to realise your potential. This is done by consciously cultivating yourself to grow more loving and more peaceful every day. The more you grow and change the more you will see the loving spirit in others. Reuniting with your centre (understanding the Source of your essence and your true nature) will help you find the Pathway to peace – your unfolding life cycle. There is nothing to fear in flourishing.",
			"meditation": "Imagine that you are in the Tongariro National Park tramping through native bush. The birds call happily overhead as you wander through this beautiful forest. The area is populated with every imaginable tree, shrub and native flower. You notice a pathway veering off to the right and the promise of moving deeper into the bush beckons you. As you stroll further along you notice some small native shrubs. A group of ponga offer you shade. You spend some time admiring the beauty of the native ferns. A small Koru attracts your attention - you are drawn to its beautiful green and rust coloured spiral. Gently, reach out and hold the Koru lightly in your palm; it feels fuzzy beneath your fingertips. The scents of earth and plants float all around. Notice how relaxed you feel in this natural environment. Still holding the Koru in your palm, gently close your eyes. Here, in this sanctuary, you have an opportunity to ask your Source of Peace to reveal your source of inner power. What is it that you need to do to help you unfurl so that you can fully realise your potential? What is it that you need to know to encourage love and peace to flourish in your life?",
			"location": {
					"lat": "-39.10848495754067",
					"lng": "175.62314987182617",
					"radius": "33"
			},
			"mapTitle" : "Koru / Ponga Frond Silver Fern Meditation: Tongariro, National Park",
			"mapDesc": "Haere mai - Welcome to the home of Koru (Ponga Frond Silver Fern) meditation. The ‘Koru - Ponga Frond Silver Fern’ meditation is located at Tongariro National Park. The park is situated in the North Island of New Zealand. It is known for its diverse landscape, rivers, native bush, mud-pools, ski slopes and it is also home to many native birds. The park has three active volcanoes. Stars of Aroha®"
		},
		{
			"id": "6",
			"maoriName": "manuka",
			"name": "NATIVE TEA TREE<br />LEPTOSPERMUM SCOPARIUM",
			"shortDesc": "The truth of who you are can never be erased or changed in any way.",
			"defination": "The Mānuka tree's true essence shone in the ancient time of Māori. Its healing substance and life sustaining properties continue to flourish to nurture and protect humans. Mānuka has a special place in the world of the mythological forest God, Tāne Mahuta, as it provided a protective covering for new plants growing in the forest. Mānuka takes the form of a shrub, flat creeper or tall tree. It has beautiful white or pink flowers with sharp tipped leaves. Known for its sweet scent, its pollen attracts birds, bees, geckos and other species. Its healing properties and food source continue to be celebrated today. Māori have long recognised that its flowers, leaves and bark hold sacred properties. Among other things it has been used to promote fire; it also provides a source of food (honey, tea) and healing medicines including oils, salves, mouthwash and sedatives.",
			"metaphor": "Over time Mānuka has retained its original nature. Like Mānuka, your true heart is unchangeable. Your perfection can only temporarily be hidden. When you disconnect from your Source you can become restless and look for happiness in unhelpful places. A preoccupation with unhelpful thoughts, behavioural habits or patterns (sometimes called \"desires\" or \"unhealthy attachments\") can keep you separated from your Source of Peace and from finding peace. Correcting unhelpful habits will help you to uncover your infinite Source of Power and you will be rewarded with inner peace. It is comforting to know that you are not alone in wanting to release unhelpful attachments – your Source of Peace is only a meditation away.",
			"meditation": "Imagine that you are tramping in the beautiful countryside of Te Anau. Mānuka shrubs bursting with bright white flowers greet you; their heavenly scent covers you in their perfume. Overhead, pink Mānuka climbers cling to the taller trees and provide a welcome shield from the midday sun. You feel safe and at ease here. A patch of soft grass nestled among native ferns tempts you. The birdlife welcomes you with happy chattering. Surrounded by this natural wilderness you stretch out on the soft grass and relax. As you close your eyes, your breathing becomes light and rhythmic. Unwanted thoughts quieten easily. Feeling so deeply relaxed your mind naturally turns towards your Source of Peace. Gently ask your Source of Peace to help you remove any unhelpful thoughts or habits you wish to release. Life's challenges are helpful opportunities for you to strengthen your mind. No matter what life throws at you, your Source of Peace will always help you to return to a state of Peace.",
			"location": {
					"lat": "-45.42158812329089",
					"lng": "167.71591186523438",
					"radius": "23"
			},
			"mapTitle" : "Mānuka / Native Tea Tree Meditation: Te Anau",
			"mapDesc": "Haere mai - Welcome to the home of Mānuka (Native Tea Tree) meditation. The ‘Mānuka – Native Tea Tree’ meditation is located at Te Anau in the South Island. Home of the largest South Island lake, it is also the gateway to Fiordland National Park and Piopiotahi – Milford.  The town of Te Anau sits on the edge of Lake Te Anau. The Te Anau Caves glitter with glow-worms. Stars of Aroha®"
    	},
		{
			"id": "7",
			"maoriName": "harakeke",
			"name": "NEW ZEALAND FLAX<br />PHORMIUM TENAX",
			"shortDesc": "Everyone has unlimited potential to help others, no matter who we are, where we come from or what we have experienced.",
			"defination": "Harakeke is a native flax of Aotearoa and is often found in lowland swamps. The large plant has deep red flowers and its long upright leaves are thick and strong. Revered for its fibre, every part of the plant was used to sustain the life of early Māori and contributed to the economy. It was used to make clothing, household items, rongoā Māori (natural medicine), perfume and it has been a source of food. It also played an important role in spiritual rituals. Today, versatile Harakeke is transformed into fibre that is made into paper and it is still woven into beautiful korowai (cloaks). Māori find a helpful representation of the whānau (family) in the formation of the Harakeke; at its centre, represented by the new shoots, sits rito (the child); next to rito are the protective leaves or awhi rito (the parents) and next to those are the outer leaves or tūpuna (the ancestors).",
			"metaphor": "The presence of Harakeke reminds you that every person is part of the family of humanity. Every member of humanity, like everything on the planet and in the universe is meant to be here. Everything was made perfect and is unfolding just how it should be. You have an important role to play. Everything you think and do has a direct impact on those around you and the planet. You are asked to think about Harakeke and its profound usefulness; each element of the Harakeke contributes something helpful to nurture and sustain its community. When you are aligned with your Source of Peace your heart will naturally open and you will feel yourself connect to others. Feeling peaceful and loving is your natural state. No matter who you are, or where you come from, or what you have experienced in your life, you have an unlimited Source of Peace available to you to draw from to help others.",
			"meditation": "Imagine hiking along the Piha coastline when you stop to admire a group of Harakeke shrubs. One particular Harakeke shrub looms proud yet humble before you. Notice how calm you feel in her presence. Just being near this powerful Harakeke seems to soothe your soul. Her healing essence envelops you as you travel deep within to connect with your Source of Peace. Imagine asking your Source of Peace to help you discover the special gifts you have been blessed with. Ask for these to be revealed to you now. Your gifts will help you to connect with others and develop deeper relationships with them. Take a moment to reflect on these gifts as they are your sacred resources that can be used to spread love and peace.",
			"location": {
					"lat": "-36.9539698",
					"lng": "174.4615577",
					"radius": "3.3"
			},
			"mapTitle" : "Harakeke /New Zealand Flax Meditation: Piha Coastline",
			"mapDesc": "Haere mai - Welcome to the home of Harakeke (NZ Flax) meditation. The ‘Harakeke - New Zealand Flax’ meditation is located on the Piha Coastline, West Auckland. The beach is well known for its black sands and wild surf.  This wind-swept coast is a great place to stroll the beach while enjoying the rugged scenery.  The small Piha village is a stone’s throw from the beach. Stars of Aroha®"
   		},
		{
			"id": "8",
			"maoriName": "ponga",
			"name": "SILVER FERN<br />CYATHEA DEALBATA",
			"shortDesc": "True beauty shines for all to see.",
			"defination": "Ponga is a native tree of New Zealand; it flourishes in forests with dry climates. The Ponga tree grows to a medium height and its adult fronds form a natural umbrella. Ponga avoids the wind and frost and tends not to thrive beneath a heavy forested environment. Known for its beautiful green fronds, with their silvery white underside, these mature ferns were once Koru spirals (featured in this meditation book). The underside of the Ponga leaf can be used to brighten walking tracks to guide forest visitors.",
			"metaphor": "The Ponga symbolises inner beauty and self-worth. The Ponga tree’s silver ferns are truly beautiful. Their presence is a reminder that your human spirit is a shining light as you have been created from the essence of your Source of Peace, which is love. By extension, you are also love. Love is your natural beauty. You are as your Source of Peace created you - perfect, whole, divine and complete. Everything that is not of love is an illusion designed to help you pretend that your body and everything in the physical world is the truth. It is an attempt to separate you from knowing who you really are. Your light is your truth and your truth is your light.",
			"meditation": "Imagine that you are resting beneath a large Ponga tree on Rakiura - Stewart Island. A warm wind brushes against your skin as you breathe in the fragrance of the forest undergrowth. Allow your eyes to gaze upon the forest’s lacy canopy. Notice how the light dances in and out between the trees. You can hear refreshing trickling noises from a stream nearby. Ponga provides welcome shelter from the hot afternoon sun. Visually trace her perfection with your eyes until you feel her beauty stir within your own heart. Here in this natural paradise you have an opportunity to meet your shining spirit. Your Source of Peace is waiting to guide you on this sacred journey. Close your eyes and open your mind.",
			"location": {
					"lat": "-46.9972767",
					"lng": "167.8372114",
					"radius": "52"
			},
			"mapTitle" : "Ponga / Silver Fern Meditation: Rakiura, Stewart Island",
			"mapDesc": "Haere mai - Welcome to the home of Ponga (Silver Fern) meditation. The ‘Ponga – Silver Fern’ meditation is located on Rakiura - Stewart Island, 30 kilometres from the base of the South Island of New Zealand. Due to an abundance of rain and warm weather the island has plenty of forested areas, native plants and birds (including Weka, Kākā, Stewart Island Kiwi, Kererū and the endangered yellow-eyed penguin). The small settlement of Oban lies to the east of the island. On the northern side of the island is Halfmoon Bay and Moturau Moana, a beautiful public garden. Stars of Aroha®"
    	},
		{
			"id": "9",
			"maoriName": "uranga",
			"name": "RISE OF THE SUN<br />GLOW",
			"shortDesc": "Vision or seeing through the inner eye requires unity.",
			"defination": "In the Māori creation story Te Ao Mārama (the world of light) caused Tama-nui-te-ra (the Sun God) to rise in the morning and set each night. But he moved across the sky so quickly that the demi-God Maui and his brothers had little time to see what they were doing. Maui wanted more time to plant and harvest crops, so he plotted to snare Tama-nui-te-ra while he slept. But first, he had to enlist the help of his brothers. Just as the Sun God was waking, Maui successfully captured Tama-nui-te-ra with his flax ropes. He then called on his brothers to fasten the snare. Now captured, Maui requested Tama-nui-te-ra to slow down his movements across the sky to allow him and his brothers to see their planting and gathering activities and to enjoy the long sunlit days.",
			"metaphor": "The presence of Uranga is a positive sign. Uranga symbolises the awakening mind and the potential to share this love and peace with others. The rising sun is a symbol of your potential to see, not with your physical eyes, but with your inner eye - the eye that faces inwards to the truth of who you really are. This is the Source of all that is good and real. Being able to “see” your truth is vital for your spiritual growth. As the truth awakens in you, so you can unite with others to help awaken the truth in everyone. The love and peace you share with others will be given back to you in return. The sun shines effortlessly and so does your potential to love others.",
			"meditation": "Imagine that you are in Gisborne watching the first rays of sunlight peer over the brow of Papatūānuku. Uranga is calling you to awaken. Listen to the gentle rhythmic hum Uranga makes as he moves higher and higher into the sky. Notice how your senses fill up with his love; each ray of light is a spark of peace that washes through you, and over you. Can you feel your heart expanding and opening to love? Imagine taking this love and generously sprinkling it over everyone you know near and far… Uranga encourages you to shine with love so that others can see a new day and the Pathway home.",
			"location": {
					"lat": "-38.662334",
					"lng": "178.017649",
					"radius": "16"
			},
			"mapTitle" : "Uranga / Rise of the Sun Meditation: Gisborne",
			"mapDesc": "Haere mai - Welcome to the home of Uranga (Rise of the Sun) meditation. The location of ‘Uranga - Rise of the Sun’ meditation is Gisborne. Known for its beautiful coastline, surf and wine, Gisborne is situated on the East Coast of the North Island. Rich in indigenous Māori history, Gisborne is also known to be the first city in the world to see the sun rise. Stars of Aroha®"
    	},
		{
			"id": "10",
			"maoriName": "marama",
			"name": "MOON",
			"shortDesc": "There is always potential for transformation from a closed to an open heart.",
			"defination": "The quiet power of Marama cannot be matched for the Moon holds the potential to influence the survival of humankind. In Māori mythology, Marama is symbolically associated with women, feminine energy and the life cycle. For example, the Moon's cycle guided the planting of crops needed to sustain the ancestors. Feminine Moon energy has many aspects, many faces and many phases. Transformation and change is a natural part of the life cycle; it is the universal law of nature. The presence of Marama signals the opportunity for positive transformation from a state of closed to open heart.",
			"metaphor": "Marama is about the transformation from a closed to an open heart. Perhaps there is something blocking your magnificence, creativity or freedom to think positively about yourself? Marama encourages you to trust your Source of Peace to help your mind to open and grow. Being connected to your Source of Peace will take you into the light. Many things can be released in this quest. Your transformation is merely an uncovering of the light that is already within you. Open and innocent, Marama signals that this is a good time to bathe under the Moon's light and welcome new possibilities into your life.",
			"meditation": "Imagine golden light streaming down from Marama - she creates a perfect pathway of light across Raukawa Moana - Cook Strait. Her warmth bathes everything around her, including the stars in the mid-winter sky. Observe how the stars seem to soften and hush in her presence. She commands the night. Marama covers you in shimmering light from head to toe. The powerful presence of her energy courses through you until you feel yourself begin to float, as if on air. Notice how safe you feel - breathe, exhale and relax. Gently call to your Source of Peace to help you reflect on any area of your life where you might be experiencing a hardening of your heart. Ask your Source of Peace to help you draw on Marama’s energy to help your heart soften. What do you need to help you move towards the light? Gently allow your heart to open to the love and beauty that lies deep within.",
			"location": {
					"lat": "-41.325660",
					"lng": "174.403147",
					"radius": "25"
			},
			"mapTitle" : "Marama / Moon Meditation: Raukawa Moana / Cook Strait",
			"mapDesc": "Haere mai - Welcome to the home of Marama (Moon) meditation. The ‘Marama – Moon’ meditation is located at Te Moana-o-Raukawa - Cook Strait. This beautiful yet unpredictable stretch of water flows between the North and South Islands of New Zealand and connects the Tasman Sea with the South Pacific Ocean. New Zealand’s capital city, Wellington, sits on the edge of the harbour at the bottom of the North Island. Stars of Aroha®"
    	},
		{
			"id": "11",
			"maoriName": "tūī",
			"name": "PARSON BIRD<br />PASSERINE BIRD OF NEW ZEALAND",
			"shortDesc": "What we give to others is what we give to ourselves.",
			"defination": "The Tūī is a most beautiful bird and is greatly revered by Māori. He is recognised for his dark shiny feathers and a small tuft of white feathers at his throat. Tūī is also known for his ability to sing – his musical notes touch something deep inside the soul. Associated with the realm of divinity within Māori mythology, one of the most auspicious characteristics of Tūī is that he is a master mimic. In former times Tūī were kept by Māori ancestors as pets. They were carefully selected by tohunga (Māori spiritual priests or priestesses) or someone with a gift in training the Tūī. This involved a careful and disciplined training process. Training could take many months before Tūī could recite specific words, sentences, charms, rituals or sacred knowledge, requiring much patience and clever management by the trainer. Once taught, Tūī could perform his ritual when coaxed by his trainer. Some Tūī had the uncanny knack of predicting future events. They would alert an iwi (tribe) of unexpected guests, prompting people to awaken and prepare a meal in readiness for their manuhiri (guests). This predictive phenomenon is what adds to the mystical nature of Tūī.",
			"metaphor": "When Tūī is present you are reminded that there is the potential to teach or learn something new. Learning is not a solitary act as it requires both the learner and the teacher. The amazing ability of Tūī to sing and speak so effortlessly is attributed to his natural talent to hear perfectly, to retain knowledge and to repeat this back correctly, at the right time. This requires willingness on the learner’s part and also willingness on the part of the one teaching. The energy of Tūī speaks of the sacred knowledge expressed between the learner and the teacher. Just as the learner gets pleasure from gaining new knowledge, the teacher gains pleasure in seeing the student blossom. In the student/teacher relationship the simultaneous act of giving/receiving can be viewed as mutually rewarding and beneficial. Tūī signals an opportunity to develop your potential to express your understanding of love and peace to others and in this act of giving you will also gain love and peace in return.",
			"meditation": "Imagine that you are walking through the Hamilton Gardens on the bank of the Waikato River when you hear Tūī singing from a large Harakeke flax bush. You are drawn to Tūī as he flutters his shiny feathers and flits between the bright red flowers. Your mind naturally embraces his energy as you stop to listen to his sweet voice. Gently ask your Source of Peace to join you in this peaceful garden. Notice how completely at ease and relaxed you feel here. Tūī surprises you by unexpectedly hopping on a branch so close to you that you can see each bright white tuft of feather under his throat. He invites you to follow him. He wants to take you to a place where you will learn something new; “It will help your spiritual growth and you can use what you learn to teach others,” he tells you. Your heart softens under his gaze as he takes flight and heads towards the place of deep learning. You are full of anticipation as you feel your body lift up and fly across the garden in the same direction. He flies high above the green fields and you happily follow him. When you tilt your head slightly you glimpse a cloudless blue sky above and the water in the distance. Where is Tūī taking you? What does he want you to learn and with whom does he want you to share your knowledge?",
			"location": {
					"lat": "-37.80497",
					"lng": "175.305202",
					"radius": "3.75"
			},
			"mapTitle" : "Tūī / Parson Bird Meditation: Hamilton Gardens, Waikato River",
			"mapDesc": "Haere mai - Welcome to the home of Tūī (Parson Bird) meditation.  The ‘Tūī - Parson Bird’ meditation is located at the Hamilton Gardens on the banks of the Waikato River. The Hamilton Gardens are made up of a variety of artistically designed concept gardens. The garden sits within a large public park. The park includes a small lake, walkway, waterfall lookout, native trees and walking tracks. Stars of Aroha®"
    	},
		{
			"id": "12",
			"maoriName": "<span style='color:#000;'>moana</span>",
			"name": "<span style='color:#000;'>OCEAN</span>",
			"shortDesc": "<span style='color:#000;'>Deep healing can be found in the same places where undercurrents and tensions flourish.</span>",
			"defination": "Moana is the Māori word for ocean. Te Moana Nui a Kiwa – \"The Great Ocean of Kiwa\" – is the Māori name for the Pacific Ocean. Māori mythology attributes Te Moana Nui a Kiwa with having several divine guardians. Kiwa, a male divinity, is responsible for regulating and controlling the tides and currents; his first wife Parawhenuamea was a powerful divinity in her own right. She is attributed with creating water and is a recognised deity of New Zealand’s fresh water systems. In one popular version of Māori mythology however, it is Hinemoana (Ocean Woman), Kiwa's second wife, who is considered a prominent female guardian of sea life. However, Hinemoana can upset the peacefulness of Papatūānuku (Earth Mother) as her coastal waters are capable of eroding Earth’s foreshores.",
			"metaphor": "Moana signals that while everything might appear to be smooth on the ocean's surface, the presence of Hinemoana suggests that things may be turbulent beneath the water. This meditation presents an opportunity to resolve a personal grievance held about a specific situation or circumstance that may be hidden from consciousness. If you have felt personally “attacked” your heart may have become closed. When this happens the popular adage is to “forgive and forget”. However saying “I forgive you” may do little to bring you a sense of Peace. The truth is that only those words that have been spoken about you that you accept as the truth (about who and what you are) will hold any truth. In other words, you are only affected by that which has been said or done that you (consciously or unconsciously) believe to be justified about yourself. Only what you agree with belongs to you. Self-judgement can be corrected by releasing any judgemental ideas you may hold about yourself. This can lead to a deepening awareness and understanding of your true beauty and self-worth.",
			"meditation": "Imagine that you are swimming in the surf at Mount Maunganui. The water is warm and inviting. The beach is so close that you can almost stretch out your fingers and touch the tiny beads of white sand. You enjoy listening to the waves as they gently land on the shore. Your eyes wander upwards to the blue summer sky. Now, swim beyond the waves and trail your fingers through the smooth surface of the ocean. Moana soothes you as you watch each wave continue its journey to the shore and back. When you are ready ask your Source of Peace to guide your mind back to a time when you were hurt by another’s words or actions. Breathe deeply and play the scene over again slowly. Pause at the places in the conversation where you felt most upset. The warm water envelops you as you search for clues to release you from the pain. Now carefully consider the things that upset you. Very gently, ask your Source of Peace to help you release these memories. When you are ready, dive into the ocean and emerge from Moana cleansed and energised.",
			"location": {
					"lat": "-37.659906",
					"lng": "176.196673",
					"radius": "9.6"
			},
			"mapTitle" : "Moana / Ocean Meditation: Mount Maunganui",
			"mapDesc": "Haere mai - Welcome to the home of Moana (Ocean) meditation. The ‘Moana – Ocean’ meditation is located at Mount Maunganui. The Pacific Ocean surrounds ‘Mauao,’ an extinct volcanic mountain. The Māori translation for Mauao is ‘caught by the dawn.’  Pilot Bay’s sheltered waters are located on one side of Mauao while on the other side white sand and surf offer swimming, surfing and boogie boarding. Heated salt water pools can be accessed at the base of Mauao. Stars of Aroha®"
    	},
		{
			"id": "13",
			"maoriName": "<span style='color:#000;'>motutere</span>",
			"name": "<span style='color:#000;'>ISLAND</span><br/><br/><br/>",
			"shortDesc": "<span style='color:#000;'>Harness the Power within.</span>",
			"defination": "A popular Māori creation myth involves Maui-tikitiki-o-taranga (Maui) son of Taranga (mother) and Makeatutara (father). Born prematurely, Maui's mother wrapped him in her top knot before placing him in the sea. Ocean spirits found him, covered him in seaweed and raised him. When he returned home Maui's brothers were now fishermen. They felt insecure about the newcomer and his mystical powers. Maui stowed away on their fishing boat and when his brothers discovered him he tried to appease them by using a powerful prayer to fill their nets. But still they refused to let him fish. So Maui coated his magic fish hook with his own blood and landed the largest fish his brothers had ever seen. Maui left them to guard his fish while he set off to find a holy person to say sacred prayers over his catch. But on his return his brothers were eating the giant fish. The North Island of New Zealand is the fish. In its original state the land was smooth and flat but because of Maui's brothers' actions, the landscape is uneven and mountainous in parts. The South Island is his canoe.",
			"metaphor": "If like Maui, you can harness your source of power, you will realise your potential to find inner peace. Power is not created from what people obtain or attain in any material sense such as financial wealth, fame, qualifications or status. Nor does Power stem from the body. Power comes from being fully aligned with your Source of Peace. The story of Maui provides an example of Power harnessed for the good of humanity. The presence of Motutere provides a friendly reminder that there is always an opportunity to prepare yourself to do great things. Like Maui, you may have to go to some lengths to follow the Pathway that is right for you. Listening to and being guided by your Source of Peace is the first step in the right direction.",
			"meditation": "Imagine that you are a seabird flying over the Coromandel Peninsula towards the Pacific Ocean. You challenge yourself to soar higher and higher in the morning sky. After travelling a vast distance you decide to head back to the coast. The crisp rush of wind against your face makes you feel alive as you dip and turn. The excitement courses through your body as you gently set yourself down on the cliff top. As you glance around you realise you are standing firmly on the edge of Motutere. You steady yourself with your wings – they are spread to their full span. Your Source of Peace calls to you above the roar of the wind, \"What is it that you want to do with your life?\" Ask your Source of Peace to show you what you need to do to develop your spiritual potential and prepare yourself. With loving Peace in your heart anything is possible.",
			"location": {
					"lat": "-36.908176",
					"lng": "175.680323",
					"radius": "35"
			},
			"mapTitle" : "Motutere / Island Meditation: Coromandel Peninsula",
			"mapDesc": "Haere mai - Welcome to the home of Motutere (Island) meditation. The ‘Motutere – Island’ meditation is located on Coromandel Peninsula, west of the Pacific Ocean on the North Island of New Zealand. The Coromandel region is known for its beautiful beaches (including hot water springs), caves, coastal walks, and native rain forests. Many recreational pursuits are on offer here; water sports, diving, surfing, swimming, trekking, camping, cycling and hiking. Stars of Aroha®"
    	},
		{
			"id": "14",
			"maoriName": "maunga",
			"name": "MOUNTAINS",
			"shortDesc": "True happiness is found within. Negative attachment blocks the Pathway to peace.",
			"defination": "New Zealand has many sacred mountains. Māori mythology has accorded stories to them to illustrate how they came to be situated in the lands where they stand today. In one well known legend, Lake Taupō (formed many years ago from a volcanic eruption in central North Island) was surrounded by seven strong mountains including the only female, Pihanga. She was reportedly so beautiful that the other mountains were desperately in love with her. Their desire to stand next to her was so strong it led the mountain Gods to battle each other for this supreme position. Their competitive desires caused volcanic havoc - the sky burned red with the outpouring of their desire to be beside her and lasted for many days and nights. Finally, Tongariro won. As the new paramount leader of the land, Tongariro declared that he alone had authority to stand next to Pihanga. But first, he instructed the other mountains to move far away. He knew that at the break of dawn, the mountains would fasten to the lands where they stood. The mountains moved some distance away, but when Taranaki left he was so upset he left a deep trail in the ground. The trail is known today as the Whanganui River. Māori identity is still closely linked to prominent mountains which are viewed as ancestors. Pride is drawn from being associated with these magnificent and powerful maunga.", 
			"metaphor": "What you think is attractive, can lead you to have thoughts and actions like Tongariro and his adversaries. The \"I want\" or \"I must have at all costs\" mentality can lead to pain and prevent you from experiencing feelings of true love and peace. The things you desire are only desired because you have learned to value those things. Negative attachments will most likely cause you unhappiness because true Peace only comes from your Source of Peace and this is found within. Learning that it is all right to appreciate something without having to own, possess or control it brings a greater sense of freedom. Detachment does not mean being emotionally numb or disinterested in life, people, things or situations. Rather, it means freedom from being constantly preoccupied with negative thoughts and attachments (alcohol, food, drugs, sex, gambling etc.). Turning your gaze inwards, towards the infinite beauty that lies within, promises to be a more long lasting and deeply satisfying love affair that can then be shared with others.",
			"meditation": "Imagine that you are sitting at the base of Aoraki - Mount Cook, in the Southern Alps. Feel the majesty and power of this great mountain. Take a few moments to breathe in time with her breath. The rhythm of her pulse is deep and slow. Draw from the stillness of Maunga. Feel her energy move inside your heart until you feel her heart beat in unison with your own. You feel relaxed and safe under her watchful gaze. Imagine Maunga asking you, \"What is it that you need to give up so that the essence of your peace can be revealed? What desires are blocking your Pathway to knowing your own peace?\" Ask your Source of Peace to join you as you imagine these unwanted attachments leaving you. Feel the warmth of Maunga fill each cell of your body as you hold her close to your heart.",
			"location": {
					"lat": "-43.724132",
					"lng": "170.169258",
					"radius": "35"
			},
			"mapTitle" : "Maunga / Mountain Meditation: Aoraki, Mount Cook",
			"mapDesc": "Haere mai - Welcome to the home of Maunga (Mountain) meditation. The ‘Aoraki – Mount Cook’ meditation is located at Aoraki Mount Cook National Park in the Southern Alps. Aoraki is the highest recorded mountain in New Zealand. Māori named the mountain ‘Ao-raki’ or ‘cloud piercer’. The park features some of the highest mountains in Aotearoa. It is also known for its snowy fields and spectacular glaciers. Stars of Aroha®"
    	},
		{
			"id": "15",
			"maoriName": "ngahere",
			"name": "FOREST",
			"shortDesc": "Courage, determination and mind focus.",
			"defination": "Māori ancestors had to develop a relationship with the Ngahere (forest) for their survival. Māori creation stories about Ngahere owe their origins to Tāne Mahuta (God of the Forest). In the creation story Māori believe that Tāne Mahuta successfully used his strength to separate his parents Ranginui (Sky Father) and Papatūānuku (Earth Mother) thereby creating Te Ao Mārama (day light). He became known as \"Tāne Mahuta\". He is also attributed with travelling to the heavens and bringing back three baskets of knowledge to help humans develop wisdom. He earned the name Tāne-te-Wānanga (bringer of knowledge). Tāne Mahuta gifted humans with the opportunity to develop higher consciousness and for this he also became known as Tānenui-a-Rangi. The creation story attributes Tāne Mahuta with giving humans the knowledge to understand their true nature and live peaceful lives. Considered an important God, Tāne Mahuta is symbolised as masculinity, youthfulness and uprightness. Ngahere is a reminder of the legacy of Tāne Mahuta. The forest is full of trees - each one plays an important role in maintaining the separation of earth from sky, ensuring the world is bathed in light.",
			"metaphor": "The presence of Ngahere symbolises that steadfastness, uprightness and a focused state of mind are needed to bring light into challenging situations to achieve peace. Nothing is impossible when your mind is aligned with your Source of Peace. Ngahere asks that you focus on the task at hand. There could be something that requires your dedication to detail. Receiving this meditation is a signal that you are being invited to take action. Tāne Mahuta took on many roles, even those that were unachievable to others. In doing so he achieved the benefits of his success (light, vision, unity and wisdom) which he shared with others. Ngahere reminds you to consolidate your energy and focus your mind on cultivating your inner peace. When your mind is disciplined you can use it to find the way out of the forest of confusion to embrace the light.",
			"meditation": "Imagine that you are standing in a small clearing in the Waipoua forest. Notice how firmly each kauri tree trunk is rooted in the earth. The top of each tree reaches high into the sky. Take a moment to breathe in the sweet scent of the flowering clematis – the stars of the forest. You notice wild mushrooms growing happily beneath an old tree. Native trees of all heights and shapes surround you and their woody fragrance fills the air. You feel relaxed and at peace as you listen to the fluttering wings of tiny insects overhead. Take a moment to rest on the leafy ground and gently close your eyes. Allow your mind to become so peaceful that time seems to slow down. And now, in this very relaxed state, ask your Source of Peace to help you explore a situation in your life where greater clarity is needed. What guidance is given to help you increase your potential to strengthen your mind and cultivate love and peace?",
			"location": {
					"lat": "-35.621106",
					"lng": "173.517682",
					"radius": "35"
			},
			"mapTitle" : "Ngahere / Forest Meditation: Waipoua Forest",
			"mapDesc": "Haere mai - Welcome to the home of Ngahere (Forest) meditation.  The ‘Ngahere – Forest’ meditation is located north of Dargaville on the West Coast of the North Island. The ancient Waipoua forest is considered sacred by Māori. It is home to Tane Mahuta, the largest known living kauri tree and Te Matua Ngahere, the second largest. The Waipoua Forest also contains the largest track of native forest in New Zealand. Indigenous birds are plentiful in this ancient sanctuary. Stars of Aroha®"
    	},
		{
			"id": "16",
			"maoriName": "awa",
			"name": "RIVER",
			"shortDesc": "Momentum moving forward.",
			"defination": "Awa (rivers) have great significance to Māori. They are linked to tribal identity and they continue to sustain physical and spiritual life. Each Awa is attributed with its own life force. Awa provide fresh drinking water and are a vital source of food; they provided ancestors with a means of transport and connected the tūpuna to places, trading routes and their kinship groups. Powerful taniwha (often represented as serpents or dragons) are believed to be the guardians of Awa; they provide protection for river travellers. But at times these supernatural creatures have been said to create problems if the river is not treated respectfully.",
			"metaphor": "Awa is a meditation about direction; it is reassuring to know that you are moving towards a better future, a better way of living. Negative attachments can prevent you from attaining what already belongs to you – deep Love and inner Peace. Awa reminds you that without love in your heart and peace in your mind you will hear in two voices and think with a split mind. In truth there is only one voice and one mind. Awa signals that your Higher Self might be asking for an opportunity to emerge so that you can increase your spiritual growth. Attuning to your Source of Peace will help you to follow your inner guidance and move forward graciously. Just as the river leads to the sea, you are experiencing a natural unfolding of your life pathway. Consciously or unconsciously you are searching for the next step; your Source of Peace can confirm that you are on the right Pathway. If you flow with the energy of Awa, be assured, you will align with your Source of Peace.",
			"meditation": "Imagine that you are resting near the Karamea River on a perfectly still summer’s day. Self-assured Awa flows effortlessly. Listen to her soothing noises as she moves swiftly around the river bend and over some large rocks. Slowly dip your feet into her cool liquid. Breathe her fresh fragrances carried from the ancient hills above. Fill your cupped hands with her pure water and drink deeply. The tranquillity of Awa draws you closer; you find a small canoe waiting for you on the river bank. Make yourself comfortable as you set off. You feel lighter and lighter as Awa carries you with her. Gently ask your Source of Peace to show you where Awa is taking you. Is there something you need to do to help you move forward?",
			"location": {
					"lat": "-41.21951",
					"lng": "172.147533",
					"radius": "64"
			},
			"mapTitle" : "Awa / River Meditation: Karamea River",
			"mapDesc": "Haere mai - Welcome to the home of Awa (River) meditation.  ‘Awa – River’ meditation is located at the Karamea River. The river is located on the Tasman and West Coast regions of the South Island. Among other things this river area provides a natural wilderness for swimming, kayaking, tramping, mountain biking and bird watching. Once the Karamea River exits the national park it meanders towards the settlement of Karamea where it joins the sea. Stars of Aroha®"
    	},
		{
			"id": "17",
			"maoriName": "aopōuri",
			"name": "DARK CLOUDS",
			"shortDesc": "Clearance and renewal. Farewell the past and welcome the new.",
			"defination": "In Māori mythology, Tāwhirimatea (Weather God) is responsible for weather patterns, including cloud formations, strong winds and heavy rain. As a form of punishment against his brother Tāne Mahuta, Tāwhirimatea plays havoc with New Zealand’s wind patterns. Tāwhirimatea was angered when Tāne Mahuta successfully parted their parents Ranginui (Sky Father) and Papatūānuku (Earth Mother) as he did not want him to bring light to the darkened world. Māori ancestors were very aware of the seasons and their rapidly changing weather patterns as these affected daily life and survival. Being observant and watchful could prevent crops from dying. Tāwhirimatea is also attributed with creating positive weather chants to bring favourable winds to blow away the dark clouds.",
			"metaphor": "Aopōuri are a fact of life. We all have times in our lives when we can see a storm cloud heading our way or feel we are right beneath one. But in reality, everything is perception – from where each of us stands we will have a different perspective of the dark clouds. This meditation is about relinquishing old thoughts, patterns, behaviours or lifestyles. Aopōuri reminds you that every cloud, no matter how dark, carries a silver lining. Sunshine usually follows rain. The presence of Aopōuri presents an opportunity to work with the dark clouds (external influences) and release them. Just as Tāwhirimatea had the power to create chants to bring favourable weather, you have all the Power you need to bring light to a situation or to give up something you no longer want in your life. The invitation is for you to call upon your Source of Peace to help you to clear away old or unhelpful thoughts, patterns, behaviours or lifestyles.",
			"meditation": "Imagine that you are wandering along the beach at Wharariki. You notice rain clouds gathering in the sky but you are content to enjoy this beautiful haven a little longer. With each breath taken in and out your mind gently relaxes. In this peaceful place, allow yourself to dwell on any heavy thoughts or burdens you might be carrying. Perhaps you are finding it difficult to face something or perhaps something from the past is making you unhappy? Are you feeling concerned for the well-being of others? Invite your Source of Peace to join with you to clear, cleanse and heal this situation. Notice Aopōuri's rain softly splashing on your face. As warm droplets of water run down your cheeks, allow any concerns you have to be washed away. Imagine the sun reappearing from behind Aopōuri – it completely fills the sky. You are fully bathed in her warm light. Extend this light to the situation that you are concerned about. When you are ready turn your smiling face toward the sun.",
			"location": {
					"lat": "-40.502962",
					"lng": "172.679079",
					"radius": "26"
			},
			"mapTitle" : "Aopōuri / Dark Cloud Meditation: Wharariki Beach",
			"mapDesc": "Haere mai - Welcome to the home of Aopōuri (Dark Cloud) meditation. The ‘Aopōuri - Dark Cloud’ meditation is located at Wharariki Beach on the South Island’s west coast, at Cape Farewell.  At low tide this site can be accessed via a walking track. Wind-blown sand, huge surf, sand dunes, caves and rugged countryside make this a beautiful and interesting place for a meditation. Stars of Aroha®"
    	},
		{
			"id": "18",
			"maoriName": "kahukura",
			"name": "NEW ZEALAND RED<br />ADMIRAL BUTTERFLY",
			"shortDesc": "Communication helps to connect humanity.",
			"defination": "Kahukura is the Māori word for the Red Admiral Butterfly. Kahukura has a 50–60 mm wingspan and distinctive bright red markings on its black forewings. It also has white spots, fringed with light blue close to its wing tips. Four black circles dominate the reddish brown rear wings and inside each circle is a spot of pale blue. Its underside is a camouflage of black, brown and white markings. In spring Kahukura lays her eggs on new nettles and within nine days her offspring hatch. The larvae evolve through five stages of growth. During these transformative phases Kahukura protects herself by rolling the edge of a leaf around her body and folding it close to make a protective tent. Kahukura caterpillar lives harmoniously by feeding on nectar from flowers and plants that have been previously pollinated by Kahukura butterflies. When she reaches her full potential, the humble caterpillar will be transformed into her adult state where she will pollinate the plants that sustained her in her caterpillar form. Metamorphosis from larvae to caterpillar to butterfly highlights the connection between each stage of her growth, her environment and other living beings, including her own kin group.",
			"metaphor": "The presence of Kahukura is a sign that tending, rekindling or relighting a relationship with someone or something is important for your soul growth. Kahukura reminds you that the connections you make with others are fundamental to your well-being. The butterfly is associated with communication, Higher Power, other worlds, dreams, and travel. She reminds you to maintain connections with others through good communication - this will help to bring your mind into alignment with your true nature. If you feel emotionally cut off then you are separated from your Source of Peace. The butterfly is recognised as a symbol of transformation. Its presence is an encouraging omen to reach within and connect with your Source and then extend this love to others. Restoring balance and harmony in hardened relationships is a transformative growth opportunity. Kahukura asks you to open your heart and identify any grievance you might hold against yourself or someone else. Open, non-judgemental communication is required to melt hardened emotional walls. When you feel connected to everyone your heart will be open and you will truly know peace.",
			"meditation": "Imagine that you are fossicking for shells on a secluded beach at Kaipara Harbour. You stop occasionally to pick up a small shell or an interesting piece of drift wood. The water gently splashes your feet as you wander along the beach. You welcome the salty fragrance the wind blows in from the sea as you set yourself down to rest beneath a shady Pōhutukawa tree. You notice Kahukura warming herself on a shrub nearby. Watch closely as she spreads her wings hoping to catch the spring breeze; after a few moments her efforts are rewarded and she is gently lifted up to flight. A flash of red and blue draws your attention as you watch her dance on the wind. Soon she is joined by other butterflies and they happily flit from flower to flower. As you continue to watch Kahukura, allow your mind to drift to those nearest and dearest to you, or those you would like to be close to. Ask your Source of Peace to reveal anyone or anything that has upset you. It is time to melt away the emotional walls you’ve built to protect yourself through positive communication. Is there anything you feel angry or guilty about that has caused your heart to close? What is it that you need to say or do to restore love to this situation and return peace to your heart?",
			"location": {
					"lat": "-36.410469",
					"lng": "174.170363",
					"radius": "31"
			},
			"mapTitle" : "Kahukura / NZ Red Admiral Butterfly Meditation: Kaipara Harbour",
			"mapDesc": "Haere mai - Welcome to the home of Kahukura (NZ Red Admiral Butterfly) meditation. The ‘Kahukura - NZ Red Admiral Butterfly’ meditation is located on the north western side of the North Island. The enclosed harbour estuary is one of the largest in the world. This region is known for its recreational activities on water and land. Among other things, boating, tramping, camping and guided walks are on offer. Stars of Aroha®"
    	},
		{
			"id": "19",
			"maoriName": "pīwakawaka",
			"name": "FANTAIL",
			"shortDesc": "Returning to peace is a return to love.",
			"defination": "\"Pīwakawaka\" is one of many names Māori have for the small insect-eating fantail commonly found in gardens and forests. Pīwakawaka is associated with restlessness and jumping from side to side. The most recognisable feature of Pīwakawaka is his fan shaped tail. Legend says that when Pīwakawaka did not tell Maui where Mahuika (Māori fire deity) kept her fire hidden, Maui squeezed the little bird making his eyes pop and his tail spread. Feeling hurt and humiliated, Pīwakawaka sought justice. Pīwakawaka was one of several birds chosen by Maui to guide him to the spiritual underworld to kill Hine-Nui-Te-Po (Goddess of night and death) to ensure humans would have ever-lasting life. On arrival Maui entered the sleeping Death Goddess's vagina in the form of a small reptile. To exact revenge upon Maui, Pīwakawaka jumped about creating such a noise that Hine-Nui-Te-Po woke; she crushed and killed Maui between her powerful legs. Pīwakawaka had achieved his goal.", 			
			"metaphor": "The presence of Pīwakawaka is a signal that only love can restore disharmony. When you hold a grudge against someone, or you have negative thoughts about others, your sense of peace is disrupted. You may even withhold love in the name of those injustices, like Pīwakawaka. Any response other than love creates further disharmony. Pīwakawaka is a reminder that any thought that does not reflect love is a thought absent of love. Instead of Pīwakawaka humbly accepting his fate, he allowed his pride (associated with his love of his physical form) to influence him to adopt unloving thoughts about Maui. This caused him to develop an unloving state of mind. Harmony can be restored by going to the ancient place deep within – the place where love lives. This is the place where answers are given and peace is guaranteed to be restored. Communication with your Source of Peace is the way to finding peace and harmony. Your Source has never changed and will never change. In your awakened state all your pain can melt away and your heart can be returned to a state of love and peace.",
			"meditation": "Imagine that you are bathing in a hot thermal spring in Rotorua. The water soothes your muscles and your body feels safe and warm in this natural oasis. As you allow yourself to relax more fully into the warmth of the thermal spring you are consciously aware of your body becoming softer. The flow of relaxation spreads from your crown and travels down your face - your jaw feels completely relaxed now. The soothing sensation flows down your neck, across your shoulders and moves down your back and over your chest. The gentle wave of energy flows through each and every part of your body until it reaches your toes. Now gently allow yourself to go to the place within where nothing can intrude upon your peacefulness. As you inhale the fragrances released by the rich mineral pool travel deeper into the quiet place within your mind. It is only natural that you become One with your Source of Peace here. Gently ask your Source of Peace to help you release any unwanted resentments that you may be carrying with you. Unlike Pīwakawaka, you are ready to release the past and return your heart to a state of peace. Any lingering concerns, physical discomfort or pain can be easily washed away in this natural thermal spring.",
			"location": {
					"lat": "-38.137895",
					"lng": "176.258221",
					"radius": "14"
			},
			"mapTitle" : "Pīwakawaka / Fantail Meditation: Thermal Springs, Rotorua",
			"mapDesc": "Haere mai - Welcome to the home of Pīwakawaka (Fantail) meditation. The ‘Pīwakawaka – Fantail’ meditation is located in the Rotorua region. The area is rich in geothermal activity and there are many private pools and bubbling hot springs to relax in. Rotorua is known for its active geysers, bubbling mud pools, sulphur rich air and ancient cultural history. Stars of Aroha®"
		},
		{
			"id": "20",
			"maoriName": "ruru",
			"name": "MOREPORK<br />NEW ZEALAND<br />BROWN OWL",
			"shortDesc": "The Source of Peace's goal is always peace.",
			"defination": "In Māori mythology Ruru is linked with the spiritual world. An unexpected visit from Ruru (or hearing Ruru call) is associated with a friendly warning. Hine-Ruru (Owl Woman) is said to be a tūpuna (ancestor) who inhabits Ruru. She is thought of as a protective kaitiaki (guardian) advising people of unexpected news. When Ruru is seen sitting close to one's home or she appears in an unusual place, this may signal a friendly omen. So too, the distinctive call of Ruru is considered a message from the spirit world. The familiar \"more-pork\" sound is associated with happy news while a repetitive \"quee\" acts as a friendly warning. Traditionally, Māori believe the appearance of Ruru can foretell an unexpected event. Her presence may also forecast important news, such as a family member passing into the spirit world.",
			"metaphor": "The presence of Ruru is a sign that you are on the right track. Ruru is a positive symbol indicating that you are becoming more aware of your environment and everything that is going on around you. You are learning to watch for signs and are capable of observing in detail things that occur in your daily life. These things can help you judge the truth of any situation. If Ruru provides a friendly warning, even one that hints at something particularly worrisome, this can help you prepare for what is ahead.",
			"meditation": "Imagine that you are standing at Cape Reinga overlooking the sacred area known as 'Te Rerenga Wairua.' This is where the spirits of the dead leap off to return to Hawaiki, their spiritual homeland. As you look out towards Te Moana-a-Rehua, the place where the Tasman Sea from the west clashes with the Pacific Ocean from the east, you hear Ruru calling faintly in the distance. Slowly, turn your attention towards Ruru; imagine her soft face and gentle wise eyes. She brings only a spirit of love and peace. Ruru is here to remind you that there is more to your reality than the physical world and the body you inhabit - the spiritual realm is real and therefore you are never alone. Your Source of Peace provides many different signs to guide you. Ask your Source of Peace to be with you as you think about the wisdom Ruru brings. When you feel completely relaxed your Source of Peace will guide you on a journey. Allow any dreams, signs or symbols you have recently experienced to surface. Carefully think about each one before thanking it and releasing it. What is being shown to you? What can you do to prepare yourself by bringing love and peace to this situation?",
			"location": {
					"lat": "-34.428779",
					"lng": "172.680487",
					"radius": "32"
			},
			"mapTitle" : "Ruru / Brown Owl Meditation: Cape Reinga",
			"mapDesc": "Haere mai - Welcome to the home of Ruru (Brown Owl) meditation. The ‘Ruru - Brown Owl’ meditation’ is located in the Far North of New Zealand. Cape Reinga is situated on the north western tip of the Aupouri Peninsula, more than 100 km north of Kaitaia. The Light House at Cape Reinga overlooks the meeting place of two powerful oceans, the Tasman Sea and the Pacific Ocean. This area is sacred to Māori who believe this is where the wairua (spirits) of the dead depart for Hawaiki-nui (ancient homeland). Stars of Aroha®"
    	}
  	]
}